M 140736752137376 5 140117131574688 0.001434
F 140736752137376 140117131547887 0.003227

M 140736752136896 472 140117131877038 0.005125
M 140736752137952 4096 140117131873924 0.007115

R 0 140736752142096 1600 140117131572164 0.009068
R 0 140736752143744 1024 140117131572047 0.010427

R 140736752143744 140736752144816 2048 140117131572047 0.011914

F 140736752137952 140117131939829 0.013768
F 140736752136896 140117131874371 0.015217

F 0 140117131628274 0.016570

M 140736752138016 5 140117131574688 0.018228
M 140736752138080 47 140117131573346 0.019825
F 140736752138080 140117131574504 0.021800

M 140736752138080 47 140117131573346 0.023434
M 140736752138240 104 140117131573748 0.025116

M 140736752138384 42 140117131573346 0.026585
M 140736752138480 72 140117131573748 0.027914
M 140736752138592 36 140117131573346 0.029518
M 140736752138672 56 140117131573748 0.030663
M 140736752138768 41 140117131573346 0.032088
M 140736752138864 72 140117131573748 0.033473
M 140736752138976 36 140117131573346 0.034993

F 140736752138976 140117131574504 0.036733
M 140736752138976 36 140117131573346 0.038237
F 140736752138976 140117131574504 0.039703
F 140736752138016 140117131544553 0.041145

M 140736752139184 192 140117131545007 0.042565
M 140736752139392 8 140117131994447 0.043975
M 140736752139456 8 140117131994383 0.045444
M 140736752139520 5 140117131574688 0.046788

F 140736752139520 140117131547887 0.048046
M 140736752139520 5 140117131574688 0.049574
M 140736752139648 44 140117131573346 0.051247
F 140736752139648 140117131574504 0.052503

M 140736752139648 44 140117131573346 0.053878
M 140736752139808 104 140117131573748 0.055286
M 140736752138976 39 140117131573346 0.056830
M 140736752139984 72 140117131573748 0.058202
M 140736752140096 33 140117131573346 0.059664
M 140736752140176 56 140117131573748 0.060944
M 140736752140272 38 140117131573346 0.062457
M 140736752140352 72 140117131573748 0.063962
M 140736752140464 33 140117131573346 0.065518

F 140736752140464 140117131574504 0.067148
M 140736752140464 33 140117131573346 0.068800
F 140736752140464 140117131574504 0.070037
F 140736752139520 140117131544553 0.071255
M 140736752140672 80 140117131545007 0.072515

M 140736752140768 8 140117131994447 0.073785
M 140736752140832 8 140117131994383 0.075027
M 140736752140896 5 140117131574688 0.076562

F 140736752140896 140117131547887 0.078127
M 140736752140896 5 140117131574688 0.079801
M 140736752141024 42 140117131573346 0.081660
F 140736752141024 140117131574504 0.082965

M 140736752141024 42 140117131573346 0.084118
M 140736752141184 104 140117131573748 0.085368
M 140736752140464 37 140117131573346 0.086684
M 140736752141360 72 140117131573748 0.088184
M 140736752141472 31 140117131573346 0.091203
M 140736752141552 56 140117131573748 0.092707
M 140736752141648 36 140117131573346 0.094251
M 140736752141728 72 140117131573748 0.095775
M 140736752141840 31 140117131573346 0.097906

F 140736752141840 140117131574504 0.099377

M 140736752141840 31 140117131573346 0.100882
F 140736752141840 140117131574504 0.102282
F 140736752140896 140117131544553 0.103823
M 140736752146944 104 140117131545007 0.105639

M 140736752147056 8 140117131994447 0.107044
M 140736752147120 8 140117131994383 0.108395
M 140736752147184 5 140117131574688 0.109697
F 140736752147184 140117131547887 0.110949

M 140736752147184 5 140117131574688 0.112559
M 140736752141840 40 140117131573346 0.114121
F 140736752141840 140117131574504 0.115410

M 140736752141840 40 140117131573346 0.116531
M 140736752147408 104 140117131573748 0.117918
M 140736752147552 35 140117131573346 0.119309
M 140736752147632 72 140117131573748 0.120624
M 140736752147744 29 140117131573346 0.121631
M 140736752147824 56 140117131573748 0.122768
M 140736752147920 34 140117131573346 0.123728
M 140736752148000 72 140117131573748 0.124838
M 140736752148112 29 140117131573346 0.126194
F 140736752148112 140117131574504 0.127795

M 140736752148112 29 140117131573346 0.129166
F 140736752148112 140117131574504 0.130650
F 140736752147184 140117131544553 0.131746
M 140736752148320 168 140117131545007 0.132875

M 140736752148496 8 140117131994447 0.133865
M 140736752148560 8 140117131994383 0.135186
M 140736752148624 5 140117131574688 0.136228
F 140736752148624 140117131547887 0.137165

M 140736752148624 5 140117131574688 0.138200
M 140736752148112 37 140117131573346 0.139559
F 140736752148112 140117131574504 0.140962

M 140736752148112 37 140117131573346 0.142173
M 140736752148848 104 140117131573748 0.143455
M 140736752148992 32 140117131573346 0.144766
M 140736752149072 72 140117131573748 0.145966
M 140736752149184 26 140117131573346 0.147319
M 140736752149264 56 140117131573748 0.148579
M 140736752149360 31 140117131573346 0.149690
M 140736752149440 72 140117131573748 0.150930
M 140736752149552 26 140117131573346 0.152300
F 140736752149552 140117131574504 0.153646

M 140736752149552 26 140117131573346 0.155017
F 140736752149552 140117131574504 0.156384
F 140736752148624 140117131544553 0.157700
M 140736752149760 120 140117131545007 0.159289

M 140736752149888 8 140117131994447 0.160631
M 140736752149952 8 140117131994383 0.161768
M 140736752150016 5 140117131574688 0.162675
F 140736752150016 140117131547887 0.163549
M 140736752150016 5 140117131574688 0.164471
M 140736752149552 38 140117131573346 0.165493
F 140736752149552 140117131574504 0.166406

M 140736752149552 38 140117131573346 0.167850
M 140736752150240 104 140117131573748 0.169390
M 140736752150384 33 140117131573346 0.170846
M 140736752150464 72 140117131573748 0.172078
M 140736752150576 27 140117131573346 0.173362
M 140736752150656 56 140117131573748 0.174611
M 140736752150752 32 140117131573346 0.175945
M 140736752150832 72 140117131573748 0.177476
M 140736752150944 27 140117131573346 0.178896
F 140736752150944 140117131574504 0.180261
M 140736752150944 27 140117131573346 0.181653
F 140736752150944 140117131574504 0.183063
F 140736752150016 140117131544553 0.184671

M 140736752151152 88 140117131545007 0.186180
M 140736752151248 8 140117131994447 0.187439
M 140736752151312 8 140117131994383 0.188991
M 140736752151376 5 140117131574688 0.190552
F 140736752151376 140117131547887 0.191979
M 140736752151376 5 140117131574688 0.193272
M 140736752151504 41 140117131573346 0.194789
F 140736752151504 140117131574504 0.195972
M 140736752151504 41 140117131573346 0.197322
M 140736752151664 104 140117131573748 0.198533
M 140736752150944 36 140117131573346 0.199763
M 140736752151840 72 140117131573748 0.201983
M 140736752151952 30 140117131573346 0.203463
M 140736752152032 56 140117131573748 0.205220
M 140736752152128 41 140117131573346 0.206673
M 140736752152224 56 140117131573748 0.208236
M 140736752152320 41 140117131573346 0.209689
F 140736752152320 140117131574504 0.210901
M 140736752152320 47 140117131573346 0.212201
M 140736752152480 72 140117131573748 0.213506
M 140736752152592 41 140117131573346 0.214822
F 140736752152592 140117131574504 0.215878
M 140736752152592 47 140117131573346 0.216934
F 140736752152592 140117131574504 0.218051
M 140736752152592 41 140117131573346 0.219305
F 140736752152592 140117131574504 0.220883
M 140736752152592 41 140117131573346 0.222307
F 140736752152592 140117131574504 0.223775
M 140736752152912 35 140117131573346 0.225046
M 140736752152992 72 140117131573748 0.226342
M 140736752153104 30 140117131573346 0.227641
F 140736752153104 140117131574504 0.228809

M 140736752152592 46 140117131573346 0.229989
M 140736752153248 72 140117131573748 0.231346
M 140736752153360 41 140117131573346 0.232568
F 140736752153360 140117131574504 0.233952
M 140736752153360 46 140117131573346 0.235172
F 140736752153360 140117131574504 0.237797
M 140736752153360 41 140117131573346 0.239274
F 140736752153360 140117131574504 0.240655
M 140736752153360 41 140117131573346 0.241923
F 140736752153360 140117131574504 0.243045
M 140736752153104 30 140117131573346 0.244335
F 140736752153104 140117131574504 0.245442
M 140736752153360 52 140117131573346 0.246530
M 140736752153776 104 140117131573748 0.247627
M 140736752153920 47 140117131573346 0.248843
F 140736752153920 140117131574504 0.251005
M 140736752153920 46 140117131573346 0.252534
F 140736752153920 140117131574504 0.253680
M 140736752153920 41 140117131573346 0.254671
F 140736752153920 140117131574504 0.255823
M 140736752153920 52 140117131573346 0.257090
F 140736752153920 140117131574504 0.258757
M 140736752153920 47 140117131573346 0.260012
F 140736752153920 140117131574504 0.261303

M 140736752153920 46 140117131573346 0.262432
F 140736752153920 140117131574504 0.263750
M 140736752153920 41 140117131573346 0.265130
F 140736752153920 140117131574504 0.266948
M 140736752153920 47 140117131573346 0.268190
F 140736752153920 140117131574504 0.269756
M 140736752153920 46 140117131573346 0.270942
F 140736752153920 140117131574504 0.272207
M 140736752153920 41 140117131573346 0.273335
F 140736752153920 140117131574504 0.274481
F 140736752151376 140117131544553 0.275709
M 140736752154656 104 140117131545007 0.276794
M 140736752154768 8 140117131994447 0.278071
M 140736752154832 8 140117131994383 0.279281
M 140736752154896 5 140117131574688 0.280708
F 140736752154896 140117131547887 0.281719
M 140736752154896 5 140117131574688 0.282724
M 140736752153920 41 140117131573346 0.283876
F 140736752153920 140117131574504 0.285079
M 140736752153920 41 140117131573346 0.286477
M 140736752155120 104 140117131573748 0.287723
M 140736752153104 36 140117131573346 0.288792
M 140736752155296 72 140117131573748 0.289988
M 140736752155408 30 140117131573346 0.291247
M 140736752155488 56 140117131573748 0.295227
M 140736752155584 35 140117131573346 0.296567
M 140736752155664 72 140117131573748 0.297830
M 140736752155776 30 140117131573346 0.299121

F 140736752155776 140117131574504 0.300197
M 140736752155776 30 140117131573346 0.301387
F 140736752155776 140117131574504 0.302640
F 140736752154896 140117131544553 0.303748
M 140736752155984 432 140117131545007 0.305281
M 140736752156432 8 140117131994447 0.306280
M 140736752156496 8 140117131994383 0.307882
M 140736752156560 5 140117131574688 0.309205
F 140736752156560 140117131547887 0.310518
M 140736752156560 5 140117131574688 0.311815
M 140736752155776 40 140117131573346 0.312935
F 140736752155776 140117131574504 0.313927
M 140736752155776 40 140117131573346 0.314877
M 140736752156784 104 140117131573748 0.315827
M 140736752156928 35 140117131573346 0.317088
M 140736752157008 72 140117131573748 0.318188
M 140736752157120 29 140117131573346 0.319240
M 140736752157200 56 140117131573748 0.320414
M 140736752157296 34 140117131573346 0.321574
M 140736752157376 72 140117131573748 0.322732
M 140736752157488 29 140117131573346 0.323956
F 140736752157488 140117131574504 0.325005
M 140736752157488 29 140117131573346 0.325970
F 140736752157488 140117131574504 0.326843
F 140736752156560 140117131544553 0.327921

M 140736752157696 216 140117131545007 0.329744
M 140736752157920 8 140117131994447 0.331041
M 140736752157984 8 140117131994383 0.332259
M 140736752158048 5 140117131574688 0.333376
F 140736752158048 140117131547887 0.334522
M 140736752158048 5 140117131574688 0.335927
M 140736752157488 37 140117131573346 0.337220
F 140736752157488 140117131574504 0.338482
M 140736752157488 37 140117131573346 0.339423
M 140736752158272 104 140117131573748 0.340629
M 140736752158416 32 140117131573346 0.341918
M 140736752158496 72 140117131573748 0.342980
M 140736752158608 26 140117131573346 0.344040
M 140736752158688 56 140117131573748 0.345054
M 140736752158784 31 140117131573346 0.346069
M 140736752158864 72 140117131573748 0.347128
M 140736752158976 26 140117131573346 0.348450
F 140736752158976 140117131574504 0.349665
M 140736752158976 26 140117131573346 0.351005
F 140736752158976 140117131574504 0.352017
F 140736752158048 140117131544553 0.353012

M 140736752159184 1336 140117131545007 0.354278
M 140736752160528 8 140117131994447 0.355374
M 140736752160592 8 140117131994383 0.356358

M 140736752160656 5 140117131574688 0.357349
F 140736752160656 140117131547887 0.359132
M 140736752160656 5 140117131574688 0.360253

M 140736752158976 40 140117131573346 0.361633
F 140736752158976 140117131574504 0.362869
M 140736752158976 40 140117131573346 0.364137

M 140736752160880 104 140117131573748 0.365432
M 140736752161024 35 140117131573346 0.366554
M 140736752161104 72 140117131573748 0.367526

M 140736752161216 29 140117131573346 0.368708
M 140736752161296 56 140117131573748 0.369619
M 140736752161392 34 140117131573346 0.370737

M 140736752161472 72 140117131573748 0.371926
M 140736752161584 29 140117131573346 0.373176
F 140736752161584 140117131574504 0.374506
M 140736752161584 29 140117131573346 0.375852

F 140736752161584 140117131574504 0.376955
F 140736752160656 140117131544553 0.378418
M 140736752161792 112 140117131545007 0.379776
M 140736752161920 8 140117131994447 0.380988
M 140736752161984 8 140117131994383 0.381975
M 140736752162048 5 140117131574688 0.383040
F 140736752162048 140117131547887 0.384105
M 140736752162048 5 140117131574688 0.385045
M 140736752161584 38 140117131573346 0.385986
F 140736752161584 140117131574504 0.386993
M 140736752161584 38 140117131573346 0.388393
M 140736752162272 104 140117131573748 0.389811
M 140736752162416 33 140117131573346 0.391143
M 140736752162496 72 140117131573748 0.392388
M 140736752162608 27 140117131573346 0.393443
M 140736752162688 56 140117131573748 0.394520
M 140736752162784 32 140117131573346 0.395601
M 140736752162864 72 140117131573748 0.396667
M 140736752162976 27 140117131573346 0.397665
F 140736752162976 140117131574504 0.398724
M 140736752162976 27 140117131573346 0.399645
F 140736752162976 140117131574504 0.400740
F 140736752162048 140117131544553 0.402012
M 140736752163184 776 140117131545007 0.403154
M 140736752163968 8 140117131994447 0.404456
M 140736752164032 8 140117131994383 0.405762
M 140736752164096 8 140117131540140 0.406955
F 0 140117131540972 0.408115
F 0 140117131540982 0.409206

M 140736752162976 34 140117131556511 0.410254

M 140736752164256 24 140117131994383 0.411224

M 140736752164320 10 140117131994383 0.412211

M 140736752164384 56 140117133797241 0.413229

M 140736752164480 56 140117133797241 0.414253

M 140736752164576 128 140117133800762 0.415228

R 0 140736752164752 20800 140117133796646 0.416086

M 140736752185600 6 140117133797241 0.417470
F 0 140117133799436 0.418969

R 0 140736752185696 24 140117133796646 0.420599

M 140736752185760 32 140117133796557 0.421774
M 140736752185840 6 140117133797241 0.422845

F 140736752185600 140117133799436 0.423910
F 0 140117133799436 0.424917
F 0 140117133799436 0.426090

M 140736752185968 32816 140117132251289 0.427175

F 140736752185968 140117132251809 0.428410
F 140736752185840 140117133799436 0.429387
F 0 140117133799436 0.430489

F 140736752185760 140117133799436 0.431799

